7.4062,-8.6607,2.058,-3.5722e-12,-1.0317e-10,-1.957e-09,1.3089e-08
0,6.4268,-6.6982,-1.5,-1.5,-1.5,-1.5
0,0,2.625,5.0404e-14,-3.0287e-13,-4.6385e-11,-9.4813e-09
0,0,0,0.35,0.35,0.35,0.35
0,0,0,0,1.0933e-13,1.0797e-11,3.9697e-10
0,0,0,0,0,-9.7133e-13,-6.8182e-11
0,0,0,0,0,0,3.7894e-12
