[-0.50683939  0.57208939],[ 0.  0.],[ 0.  0.],[ 0.  0.],[ 0.  0.],[ 0.  0.],[ 0.  0.]
[-2.43910749 -0.91445251],[ 0.72746814  1.63033186],[ 0.  0.],[ 0.  0.],[ 0.  0.],[ 0.  0.],[ 0.  0.]
[ 0.19197922  0.57536078],[-3.54234221 -2.93035779],[ 1.42054413  1.62445587],[ 0.  0.],[ 0.  0.],[ 0.  0.],[ 0.  0.]
[  7.52232218e-14   1.83791810e-13],[-1.5 -1.5],[  8.89244728e-15   2.75768736e-13],[ 0.35  0.35],[ 0.  0.],[ 0.  0.],[ 0.  0.]
[ -5.09978190e-12   8.46961586e-13],[-1.5 -1.5],[ -1.84247323e-11   2.39030168e-11],[ 0.35  0.35],[ -1.76548205e-12   2.01528223e-12],[ 0.  0.],[ 0.  0.]
[ -1.26021369e-10   5.37088238e-11],[-1.5 -1.5],[ -1.51161987e-09   1.44757510e-09],[ 0.35  0.35],[ -5.01910942e-10   5.06751514e-10],[ -6.90217288e-11   6.93787765e-11],[ 0.  0.]
[  1.68868684e-09   9.95107276e-09],[-1.50000005 -1.49999997],[ -1.33574293e-07   1.41254258e-07],[ 0.34999982  0.35000018],[ -1.16586579e-07   1.16853303e-07],[ -3.51470062e-08   3.51197089e-08],[ -4.02411300e-09   4.02366402e-09]
