7.1733,-9.9013,-1.0037,-4.5673,-5.4476,-4.2544,-5.2918
0,6.8298,-4.0652,4.9359,8.8019,0.49836,11.325
0,0,2.179,-2.3664,-5.9266,6.1602,-16.779
0,0,0,0.60605,1.7209,-4.8181,13.964
0,0,0,0,-0.11148,1.3667,-5.7477
0,0,0,0,0,-0.11826,1.1384
0,0,0,0,0,0,-0.083779
